%YAML 1.1
%TAG !u! tag:unity3d.com,2011:
--- !u!1045 &1
EditorBuildSettings:
  m_ObjectHideFlags: 0
  serializedVersion: 2
  m_Scenes:
  - enabled: 1
    path: Assets/Game_Deliverable2/opening.unity
    guid: eb7d459f0ad082f479b48cb1a8f449bf
  - enabled: 1
    path: Assets/Game_Deliverable2/Cutscene/Yuanxi_Z.unity
    guid: 164fc101ab8f1584d9f3f9772734e457
  - enabled: 1
    path: Assets/Game_Deliverable2/trans.unity
    guid: 0470b73e3a405e7458c44f536599403d
  - enabled: 1
    path: Assets/Game_Deliverable2/Game.unity
    guid: 30077ecf5a8343842ae2c9e14a8e6b94
  m_configObjects:
    AddressableAssetSettings: {fileID: 0}
    Unity.XR.Oculus.Settings: {fileID: 11400000, guid: dcc0276c70eae7048bf23230f3423a9a,
      type: 2}
    com.unity.addressableassets: {fileID: 11400000, guid: 350a079eb1fd2a3499b4298b8fdb9cb8,
      type: 2}
    com.unity.input.settings: {fileID: 11400000, guid: c5330a386e91d5a448dbc8e22705d851,
      type: 2}
    com.unity.xr.management.loader_settings: {fileID: 11400000, guid: 5c3193daed31ae549aed2406895709ec,
      type: 2}
    com.unity.xr.openxr.settings4: {fileID: 11400000, guid: a36e74c560f6eb642a3abf12858bd83e,
      type: 2}
